<?xml version="1.0" encoding="utf-8"?>
<!-- Generator: Adobe Illustrator 16.0.0, SVG Export Plug-In . SVG Version: 6.00 Build 0)  -->
<!DOCTYPE svg PUBLIC "-//W3C//DTD SVG 1.1//EN" "http://www.w3.org/Graphics/SVG/1.1/DTD/svg11.dtd">
<svg version="1.1" id="Layer_1" xmlns="http://www.w3.org/2000/svg" xmlns:xlink="http://www.w3.org/1999/xlink" x="0px" y="0px"
	 width="37px" height="37px" viewBox="0 0 37 37" enable-background="new 0 0 37 37" xml:space="preserve">
<g>
	<g>
		<path fill="#C4161C" d="M37,4c0-2.209-1.791-4-4-4H4C1.791,0,0,1.791,0,4v29c0,2.209,1.791,4,4,4h29c2.209,0,4-1.791,4-4V4z"/>
	</g>
</g>
<path fill="#FFFFFF" d="M24.5,10.5l2,4h-3l-2-4h-2l2,4h-3l-2-4h-2l2,4h-3l-2-4h-1c-1.104,0-2,0.896-2,2v12c0,1.104,0.896,2,2,2h16
	c1.104,0,2-0.896,2-2v-14H24.5z"/>
</svg>
