<?xml version="1.0" encoding="utf-8"?>
<!-- Generator: Adobe Illustrator 16.0.0, SVG Export Plug-In . SVG Version: 6.00 Build 0)  -->
<!DOCTYPE svg PUBLIC "-//W3C//DTD SVG 1.1//EN" "http://www.w3.org/Graphics/SVG/1.1/DTD/svg11.dtd">
<svg version="1.1" id="Layer_1" xmlns="http://www.w3.org/2000/svg" xmlns:xlink="http://www.w3.org/1999/xlink" x="0px" y="0px"
	 width="230px" height="338px" viewBox="0 -1 230 338" enable-background="new 0 -1 230 338" xml:space="preserve">
<g>
	<g>
		<path d="M176.717,123.048c-15.575-12.036-59.371-10.443-59.371-10.443s-43.793-1.593-59.368,10.443
			c-4.465,1.245-17.267,2.476-17.267,2.476v21.238c0,0,7.208,1.36,11.467,10.531c2.178,17.011,8.266,46.128,15.791,50.246
			c11.953,6.548,22.864,7.092,49.377,7.092c26.51,0,37.423-0.544,49.378-7.092c7.531-4.118,13.61-33.235,15.793-50.246
			c4.256-9.171,11.463-10.531,11.463-10.531v-21.238C193.979,125.523,181.18,124.292,176.717,123.048z M161.201,201.706
			c-10.617,5.537-20.307,6.005-43.855,6.005c-23.544,0-33.245-0.468-43.854-6.005c-10.614-5.54-18.003-50.787-13.388-67.412
			c4.62-16.621,57.242-14.775,57.242-14.775s52.623-1.846,57.245,14.775C179.207,150.919,171.817,196.166,161.201,201.706z"/>
		<g>
			<path d="M121.229,119.629c9.932,0,18.985,4.226,25.854,11.177c-7.128-9.601-17.801-15.708-29.737-15.708
				c-21.457,0-38.861,19.714-38.861,44.038c0,13.069,5.024,24.798,13.008,32.868c-5.691-7.657-9.118-17.54-9.118-28.337
				C82.375,139.349,99.772,119.629,121.229,119.629z"/>
			<g>
				<path d="M155.782,152.703c-2.179-0.777-4.437-1.385-6.755-1.825c0.778,1.275,1.234,2.769,1.234,4.372
					c0,4.647-3.772,8.417-8.421,8.417c-4.653,0-8.423-3.77-8.423-8.417c0-1.795,0.565-3.455,1.522-4.822
					c-22.362,2.756-39.692,21.793-39.736,44.895c6.286,4.941,13.915,7.85,22.142,7.85c21.46,0,38.86-19.711,38.86-44.037
					C156.206,156.946,156.058,154.806,155.782,152.703z"/>
			</g>
		</g>
		<path d="M201.923,78.074c57.748,13.469,2.252,65.022,2.252,65.022c5.998-31.64-12.751-44.522-12.751-44.522
			s-21.812,22.845-78.063,24.018c-56.24,1.168-68.173-27.532-68.173-27.532c-25.498,9.956-18.745,47.447-18.745,47.447
			C-24.551,86.27,38.38,72.804,38.38,72.804s11.713-36.905,55.646-39.836c43.938-2.928,73.813-14.643,64.444-32.218
			c0,0,33.387,35.149,14.64,59.75c0,0,30.463-9.958,19.92-35.146C193.03,25.354,221.365,54.642,201.923,78.074z"/>
	</g>
	<g>
		<path fill="#C4161C" d="M110.131,285.222c0,0-4.322,0.263-7.97,2.348c-3.175,1.812-7.661,2.239-12.661-2.498V253.5H59.624
			c-4.723-2-4.298-8.637-2.484-11.812c2.084-3.646,2.346-7.077,2.346-7.077c0-4.891-3.964-8.877-8.857-8.877
			c-4.893,0-8.856,3.954-8.856,8.847c0,0,0.257,3.465,2.344,7.113c1.812,3.174,2.239,9.806-2.483,11.806h-7.527
			c11.19,6.566,23.66,12.885,32.673,16.462c5.959,2.359,10.047,6.151,12.145,14.084c2.826,10.656-2.736,19.029-12.526,24.773
			c-2.092,1.225-5.619,2.085-9.536,1.837c1.62,1.58,2.624,3.779,2.624,6.239c0,0-0.262,3.844-2.346,7.489
			c-1.814,3.172-2.239,8.766,2.484,12.115H89.5v-33.414c5-4.733,9.488-4.309,12.663-2.492c3.647,2.082,7.506,2.344,7.506,2.344
			c4.889,0,9.091-3.966,9.091-8.856C118.761,289.188,115.022,285.222,110.131,285.222z"/>
		<path fill="#C4161C" d="M6.5,336.5h35.133c4.723-3.35,4.295-8.983,2.483-12.159c-2.086-3.646-2.344-7.189-2.344-7.189
			c0-4.166,2.882-7.766,6.76-8.742c-15.124-6.386-33.55-15.087-42.033-19.144V336.5z"/>
	</g>
	<g>
		<path fill="#C4161C" d="M217.902,281.581l-8.393-14.299c-6.82,4.223-16.821,10.286-27.525,16.335
			c-5.883,3.332-12.613,3.1-16.052,1.596c-10.403-4.54-16.925-12.188-15.383-23.102c1.148-8.131,4.755-12.385,10.383-15.433
			c7.414-4.02,17.184-10.413,26.402-17.177l-11.103-18.916l-70.997,41.668l41.668,70.997l28.199-16.55
			c5.464-0.004,7.891,4.982,7.937,8.636c0.048,4.198,1.406,7.028,1.406,7.028c2.475,4.217,7.922,5.662,12.139,3.185
			c4.221-2.476,5.667-7.841,3.192-12.061c0,0-1.869-2.67-5.513-4.763c-3.168-1.817-6.332-6.359-3.663-11.12L217.902,281.581z"/>
	</g>
	<g>
		<path d="M215.271,203.325c-23.595,26.303-56.138,41.712-56.138,41.712c-4.622,2.82-7.893,6.986-9.67,11.684l-5.442,1.021
			c-1.786,0.336-2.004,1.416-0.478,2.397l4.487,2.922c-0.314,3.646,0.237,7.385,1.712,10.916l-3.214,3.987
			c-1.134,1.416-0.598,2.372,1.201,2.131l5.17-0.679c1.739,2.22,3.817,4.058,6.127,5.474l-0.469,5.275
			c-0.164,1.802,0.821,2.302,2.176,1.098l4.282-3.752c6.033,1.684,12.705,0.986,18.475-2.533c0,0,16.794-9.571,34.998-23.342
			c0,0-17.109,11.021-36.505,21.98c-5.883,3.332-12.613,3.1-16.052,1.596c-10.403-4.54-16.925-12.188-15.383-23.102
			c1.148-8.131,4.755-12.385,10.383-15.433C179.455,236.636,212.693,211.785,215.271,203.325z"/>
	</g>
	<g>
		<path d="M7.675,233.374c26.56,23.309,60.703,34.748,60.703,34.748c4.921,2.245,8.665,5.997,10.987,10.447l5.525,0.36
			c1.81,0.128,2.15,1.171,0.759,2.33l-4.102,3.426c0.73,3.594,0.637,7.367-0.408,11.056l3.666,3.57
			c1.297,1.268,0.874,2.287-0.931,2.264l-5.222-0.062c-1.461,2.416-3.314,4.481-5.434,6.163l1.092,5.178
			c0.373,1.779-0.543,2.394-2.034,1.356l-4.69-3.222c-5.789,2.388-12.509,2.494-18.654-0.317c0,0-17.812-7.508-37.521-19.017
			c0,0,18.292,8.903,38.859,17.485c6.236,2.611,12.893,1.572,16.126-0.32c9.79-5.744,15.353-14.117,12.526-24.773
			c-2.098-7.933-6.186-11.725-12.145-14.084C47.187,262.187,11.238,241.458,7.675,233.374z"/>
	</g>
</g>
</svg>
